{"_id":{"$oid":"5ca606723e681c7f35b50eca"},"name":"IIT Kharagpur","address":"Kharagpur, West Bengal 721302","description":"The Indian Institute of Technology Kharagpur is a public engineering institution established by the government of India in 1951. It was the first of the IITs to be established and is recognised as an Institute of National Importance by the Government of India.","picture":"https://storage.googleapis.com/mlbu/1xh60cjp4lju2odwqb-iitkgp.jpg","creator":"5ca5a95fe2a7c16be232b3a6","createdOn":1.55438449833e+12,"shortName":"iit-kharagpur","file":[{"_id":{"$oid":"5ca6227d1faf1c06a3375303"},"fileId":"5ca6227d1faf1c06a3375302"},{"_id":{"$oid":"5ca71b5cd6fb4c2d745d42e1"},"fileId":"5ca71b5cd6fb4c2d745d42e0"},{"_id":{"$oid":"5ca737bed6fb4c2d745d42ed"},"fileId":"5ca737bed6fb4c2d745d42ec"},{"_id":{"$oid":"5ca737d0d6fb4c2d745d42ef"},"fileId":"5ca737d0d6fb4c2d745d42ee"},{"_id":{"$oid":"5cc28fff13d0b76b4f60c2f8"},"fileId":"5cc28fff13d0b76b4f60c2f7"},{"_id":{"$oid":"5cc2907213d0b76b4f60c2fa"},"fileId":"5cc2907213d0b76b4f60c2f9"},{"_id":{"$oid":"5cc290d613d0b76b4f60c2fe"},"fileId":"5cc290d613d0b76b4f60c2fd"},{"_id":{"$oid":"5cc290ec13d0b76b4f60c300"},"fileId":"5cc290ec13d0b76b4f60c2ff"},{"_id":{"$oid":"5cc2913913d0b76b4f60c302"},"fileId":"5cc2913913d0b76b4f60c301"},{"_id":{"$oid":"5cc2958e13d0b76b4f60c30b"},"fileId":"5cc2958e13d0b76b4f60c30a"},{"_id":{"$oid":"5cc29b7a13d0b76b4f60c314"},"fileId":"5cc29b7a13d0b76b4f60c313"},{"_id":{"$oid":"5cc29c2d13d0b76b4f60c318"},"fileId":"5cc29c2d13d0b76b4f60c317"},{"_id":{"$oid":"5cc29cb013d0b76b4f60c31a"},"fileId":"5cc29cb013d0b76b4f60c319"},{"_id":{"$oid":"5cc29da113d0b76b4f60c31c"},"fileId":"5cc29da113d0b76b4f60c31b"},{"_id":{"$oid":"5cc29e2e13d0b76b4f60c320"},"fileId":"5cc29e2e13d0b76b4f60c31f"},{"_id":{"$oid":"5cc29e5213d0b76b4f60c322"},"fileId":"5cc29e5213d0b76b4f60c321"},{"_id":{"$oid":"5cc29eb213d0b76b4f60c324"},"fileId":"5cc29eb213d0b76b4f60c323"},{"_id":{"$oid":"5cc29eec13d0b76b4f60c326"},"fileId":"5cc29eec13d0b76b4f60c325"},{"_id":{"$oid":"5cc29f6e13d0b76b4f60c32c"},"fileId":"5cc29f6e13d0b76b4f60c32b"},{"_id":{"$oid":"5cc29fa513d0b76b4f60c32e"},"fileId":"5cc29fa513d0b76b4f60c32d"},{"_id":{"$oid":"5cc29fa613d0b76b4f60c330"},"fileId":"5cc29fa613d0b76b4f60c32f"},{"_id":{"$oid":"5cc29fb613d0b76b4f60c332"},"fileId":"5cc29fb613d0b76b4f60c331"},{"_id":{"$oid":"5cc29fc813d0b76b4f60c334"},"fileId":"5cc29fc813d0b76b4f60c333"},{"_id":{"$oid":"5cc29fec13d0b76b4f60c336"},"fileId":"5cc29fec13d0b76b4f60c335"},{"_id":{"$oid":"5cc29fef13d0b76b4f60c338"},"fileId":"5cc29fef13d0b76b4f60c337"},{"_id":{"$oid":"5cc2a07c13d0b76b4f60c33d"},"fileId":"5cc2a07c13d0b76b4f60c33c"},{"_id":{"$oid":"5cc2a08913d0b76b4f60c33f"},"fileId":"5cc2a08913d0b76b4f60c33e"},{"_id":{"$oid":"5cc2a0e413d0b76b4f60c342"},"fileId":"5cc2a0e413d0b76b4f60c341"},{"_id":{"$oid":"5cc2a10013d0b76b4f60c345"},"fileId":"5cc2a10013d0b76b4f60c344"},{"_id":{"$oid":"5cc2a10113d0b76b4f60c347"},"fileId":"5cc2a10113d0b76b4f60c346"},{"_id":{"$oid":"5cc2a11913d0b76b4f60c349"},"fileId":"5cc2a11913d0b76b4f60c348"},{"_id":{"$oid":"5cc2a11b13d0b76b4f60c34b"},"fileId":"5cc2a11b13d0b76b4f60c34a"},{"_id":{"$oid":"5cc2a1b113d0b76b4f60c354"},"fileId":"5cc2a1b113d0b76b4f60c353"},{"_id":{"$oid":"5cc2a1d913d0b76b4f60c356"},"fileId":"5cc2a1d913d0b76b4f60c355"},{"_id":{"$oid":"5cc2a1fd13d0b76b4f60c358"},"fileId":"5cc2a1fd13d0b76b4f60c357"},{"_id":{"$oid":"5cc2a20c13d0b76b4f60c35a"},"fileId":"5cc2a20c13d0b76b4f60c359"},{"_id":{"$oid":"5cc2b84f73e1880f267aa802"},"fileId":"5cc2b84f73e1880f267aa801"},{"_id":{"$oid":"5cc2b8b173e1880f267aa804"},"fileId":"5cc2b8b173e1880f267aa803"},{"_id":{"$oid":"5cc2b8fd73e1880f267aa806"},"fileId":"5cc2b8fd73e1880f267aa805"},{"_id":{"$oid":"5cc2b93273e1880f267aa808"},"fileId":"5cc2b93273e1880f267aa807"},{"_id":{"$oid":"5cc2b99073e1880f267aa80e"},"fileId":"5cc2b99073e1880f267aa80d"},{"_id":{"$oid":"5cc2b9b373e1880f267aa810"},"fileId":"5cc2b9b373e1880f267aa80f"},{"_id":{"$oid":"5cc2ba3a73e1880f267aa812"},"fileId":"5cc2ba3a73e1880f267aa811"},{"_id":{"$oid":"5cc2bae873e1880f267aa817"},"fileId":"5cc2bae873e1880f267aa816"},{"_id":{"$oid":"5cc2bc3473e1880f267aa820"},"fileId":"5cc2bc3473e1880f267aa81f"},{"_id":{"$oid":"5cc2bc6273e1880f267aa822"},"fileId":"5cc2bc6273e1880f267aa821"},{"_id":{"$oid":"5cc2beb473e1880f267aa82b"},"fileId":"5cc2beb473e1880f267aa82a"},{"_id":{"$oid":"5cc2c0ca73e1880f267aa82f"},"fileId":"5cc2c0ca73e1880f267aa82e"},{"_id":{"$oid":"5cc2c4ef73e1880f267aa839"},"fileId":"5cc2c4ef73e1880f267aa838"},{"_id":{"$oid":"5cc2c55573e1880f267aa83b"},"fileId":"5cc2c55573e1880f267aa83a"},{"_id":{"$oid":"5cc2c56173e1880f267aa83d"},"fileId":"5cc2c56173e1880f267aa83c"},{"_id":{"$oid":"5cc2c5c573e1880f267aa83f"},"fileId":"5cc2c5c573e1880f267aa83e"},{"_id":{"$oid":"5cc2c6bd73e1880f267aa842"},"fileId":"5cc2c6bd73e1880f267aa841"},{"_id":{"$oid":"5cc2c89773e1880f267aa84e"},"fileId":"5cc2c89773e1880f267aa84d"},{"_id":{"$oid":"5cc2c89a73e1880f267aa850"},"fileId":"5cc2c89a73e1880f267aa84f"},{"_id":{"$oid":"5cc2c8cb73e1880f267aa852"},"fileId":"5cc2c8cb73e1880f267aa851"},{"_id":{"$oid":"5cc2c8ce73e1880f267aa855"},"fileId":"5cc2c8ce73e1880f267aa854"},{"_id":{"$oid":"5cc2c8cf73e1880f267aa857"},"fileId":"5cc2c8cf73e1880f267aa856"},{"_id":{"$oid":"5cc2c8d173e1880f267aa859"},"fileId":"5cc2c8d173e1880f267aa858"},{"_id":{"$oid":"5cc2c8d273e1880f267aa85b"},"fileId":"5cc2c8d273e1880f267aa85a"},{"_id":{"$oid":"5cd8474273e1880f267aab11"},"fileId":"5cd8474273e1880f267aab10"},{"_id":{"$oid":"5cd8478a73e1880f267aab13"},"fileId":"5cd8478a73e1880f267aab12"},{"_id":{"$oid":"5cd847bd73e1880f267aab15"},"fileId":"5cd847bd73e1880f267aab14"},{"_id":{"$oid":"5cd847dd73e1880f267aab17"},"fileId":"5cd847dd73e1880f267aab16"},{"_id":{"$oid":"5cd8494173e1880f267aab1d"},"fileId":"5cd8494173e1880f267aab1c"},{"_id":{"$oid":"5cd8497d73e1880f267aab1f"},"fileId":"5cd8497d73e1880f267aab1e"},{"_id":{"$oid":"5cd84acc73e1880f267aab21"},"fileId":"5cd84acc73e1880f267aab20"},{"_id":{"$oid":"5cd84ae073e1880f267aab23"},"fileId":"5cd84ae073e1880f267aab22"},{"_id":{"$oid":"5cd84bb373e1880f267aab25"},"fileId":"5cd84bb373e1880f267aab24"},{"_id":{"$oid":"5cdfacd073e1880f267aab52"},"fileId":"5cdfacd073e1880f267aab51"},{"_id":{"$oid":"5cdfb02d73e1880f267aab55"},"fileId":"5cdfb02d73e1880f267aab54"},{"_id":{"$oid":"5cdfb0ca73e1880f267aab57"},"fileId":"5cdfb0ca73e1880f267aab56"}],"__v":0}
{"_id":{"$oid":"5ca6ff1dd6fb4c2d745d42de"},"name":"IIT Guwahati","address":"Amingaon, Guwahati","description":"Good College","picture":"https://storage.googleapis.com/mlbu/1xh60cj8z8ju3qa4ta-iconfinder_pinterest_313123.ico","creator":"5ca6febdd6fb4c2d745d42dc","createdOn":1.554448157041e+12,"shortName":"iit-guwahati","file":[],"__v":0}
{"_id":{"$oid":"5ce56fdb73e1880f267aab5e"},"name":"Ohio State University","address":"Columbus, Ohio, United States.","description":"Ohio State University is the highest ranked public university in Ohio. It is home to the Wexner Medical Center and world-class graduate and undergraduate programs.","picture":"https://storage.googleapis.com/mlbu/1xh60cj2zqjvzel77x-osu.jpg","creator":"5ca5a95fe2a7c16be232b3a6","createdOn":1.558540251316e+12,"shortName":"ohio-state-university","file":[],"__v":0}
