[
  {
    "sems": [
      "Sem 1",
      "Sem 2",
      "Sem 3",
      "Sem 4",
      "Sem 5",
      "Sem 6",
      "Sem 7",
      "Sem 8",
      "Sem 9",
      "Sem 10",
      "Elective"
    ],
    "name": "Electrical",
    "pos": 1,
    "shortName": "electrical"
  },
  {
    "sems": [
      "Sem 1",
      "Sem 2",
      "Sem 3",
      "Sem 4",
      "Sem 5",
      "Sem 6",
      "Sem 7",
      "Sem 8",
      "Sem 9",
      "Sem 10",
      "Elective"
    ],
    "name": "Geology",
    "pos": 2,
    "shortName": "geology"
  },
  {
    "sems": [
      "Sem 1",
      "Sem 2",
      "Sem 3",
      "Sem 4",
      "Sem 5",
      "Sem 6",
      "Sem 7",
      "Sem 8",
      "Sem 9",
      "Sem 10",
      "Elective"
    ],
    "name": "Aerospace",
    "pos": 3,
    "shortName": "aerospace"
  },
  {
    "sems": [
      "Sem 1",
      "Sem 2",
      "Sem 3",
      "Sem 4",
      "Sem 5",
      "Sem 6",
      "Sem 7",
      "Sem 8",
      "Sem 9",
      "Sem 10",
      "Elective"
    ],
    "name": "Ocean Engineering",
    "pos": 4,
    "shortName": "ocean-engineering"
  },
  {
    "sems": [
      "Sem 1",
      "Sem 2",
      "Sem 3",
      "Sem 4",
      "Sem 5",
      "Sem 6",
      "Sem 7",
      "Sem 8",
      "Sem 9",
      "Sem 10",
      "Elective"
    ],
    "name": "Industrial",
    "pos": 5,
    "shortName": "industrial"
  },
  {
    "sems": [
      "Sem 1",
      "Sem 2",
      "Sem 3",
      "Sem 4",
      "Sem 5",
      "Sem 6",
      "Sem 7",
      "Sem 8",
      "Sem 9",
      "Sem 10",
      "Elective"
    ],
    "name": "Mining",
    "pos": 6,
    "shortName": "mining"
  },
  {
    "sems": [
      "Sem 1",
      "Sem 2",
      "Sem 3",
      "Sem 4",
      "Sem 5",
      "Sem 6",
      "Sem 7",
      "Sem 8",
      "Sem 9",
      "Sem 10",
      "Elective"
    ],
    "name": "Law",
    "pos": 7,
    "shortName": "law"
  },
  {
    "sems": [
      "Sem 1",
      "Sem 2",
      "Sem 3",
      "Sem 4",
      "Sem 5",
      "Sem 6",
      "Sem 7",
      "Sem 8",
      "Sem 9",
      "Sem 10",
      "Elective"
    ],
    "name": "Manufacturing",
    "pos": 8,
    "shortName": "manufacturing"
  },
  {
    "sems": [
      "Sem 1",
      "Sem 2",
      "Sem 3",
      "Sem 4",
      "Sem 5",
      "Sem 6",
      "Sem 7",
      "Sem 8",
      "Sem 9",
      "Sem 10",
      "Elective"
    ],
    "name": "Architecture",
    "pos": 9,
    "shortName": "architecture"
  },
  {
    "sems": [
      "Sem 1",
      "Sem 2",
      "Sem 3",
      "Sem 4",
      "Sem 5",
      "Sem 6",
      "Sem 7",
      "Sem 8",
      "Sem 9",
      "Sem 10",
      "Elective"
    ],
    "name": "Chemical",
    "pos": 10,
    "shortName": "chemical"
  },
  {
    "sems": [
      "Sem 1",
      "Sem 2",
      "Sem 3",
      "Sem 4",
      "Sem 5",
      "Sem 6",
      "Sem 7",
      "Sem 8",
      "Sem 9",
      "Sem 10",
      "Elective"
    ],
    "name": "Chemistry",
    "pos": 11,
    "shortName": "chemistry"
  },
  {
    "sems": [
      "Sem 1",
      "Sem 2",
      "Sem 3",
      "Sem 4",
      "Sem 5",
      "Sem 6",
      "Sem 7",
      "Sem 8",
      "Sem 9",
      "Sem 10",
      "Elective"
    ],
    "name": "Civil Engineering",
    "pos": 12,
    "shortName": "civil-engineering"
  },
  {
    "sems": [
      "Sem 1",
      "Sem 2",
      "Sem 3",
      "Sem 4",
      "Sem 5",
      "Sem 6",
      "Sem 7",
      "Sem 8",
      "Sem 9",
      "Sem 10",
      "Elective"
    ],
    "name": "Computer Science",
    "pos": 13,
    "shortName": "computer-science"
  },
  {
    "sems": [
      "Sem 1",
      "Sem 2",
      "Sem 3",
      "Sem 4",
      "Sem 5",
      "Sem 6",
      "Sem 7",
      "Sem 8",
      "Sem 9",
      "Sem 10",
      "Elective"
    ],
    "name": "ECE",
    "pos": 14,
    "shortName": "ece"
  },
  {
    "sems": [
      "Sem 1",
      "Sem 2",
      "Sem 3",
      "Sem 4",
      "Sem 5",
      "Sem 6",
      "Sem 7",
      "Sem 8",
      "Sem 9",
      "Sem 10",
      "Elective"
    ],
    "name": "Mathematics",
    "pos": 15,
    "shortName": "mathematics"
  },
  {
    "sems": [
      "Sem 1",
      "Sem 2",
      "Sem 3",
      "Sem 4",
      "Sem 5",
      "Sem 6",
      "Sem 7",
      "Sem 8",
      "Sem 9",
      "Sem 10",
      "Elective"
    ],
    "name": "Humanities",
    "pos": 16,
    "shortName": "humanities"
  },
  {
    "sems": [
      "Sem 1",
      "Sem 2",
      "Sem 3",
      "Sem 4",
      "Sem 5",
      "Sem 6",
      "Sem 7",
      "Sem 8",
      "Sem 9",
      "Sem 10",
      "Elective"
    ],
    "name": "Bio Technology",
    "pos": 17,
    "shortName": "bio-technology"
  },
  {
    "sems": [
      "Sem 1",
      "Sem 2",
      "Sem 3",
      "Sem 4",
      "Sem 5",
      "Sem 6",
      "Sem 7",
      "Sem 8",
      "Sem 9",
      "Sem 10",
      "Elective"
    ],
    "name": "Agriculture",
    "pos": 18,
    "shortName": "agriculture"
  },
  {
    "sems": [
      "Sem 1",
      "Sem 2",
      "Sem 3",
      "Sem 4",
      "Sem 5",
      "Sem 6",
      "Sem 7",
      "Sem 8",
      "Sem 9",
      "Sem 10",
      "Elective"
    ],
    "name": "Mechanical",
    "pos": 19,
    "shortName": "mechanical"
  },
  {
    "sems": [
      "Sem 1",
      "Sem 2",
      "Sem 3",
      "Sem 4",
      "Sem 5",
      "Sem 6",
      "Sem 7",
      "Sem 8",
      "Sem 9",
      "Sem 10",
      "Elective"
    ],
    "name": "Physics",
    "pos": 20,
    "shortName": "physics"
  },
  {
    "sems": [
      "Sem 1",
      "Sem 2",
      "Sem 3",
      "Sem 4",
      "Sem 5",
      "Sem 6",
      "Sem 7",
      "Sem 8",
      "Sem 9",
      "Sem 10",
      "Elective"
    ],
    "name": "Entrepreneurship",
    "pos": 21,
    "shortName": "entrepreneurship"
  },
  {
    "sems": [
      "Sem 1",
      "Sem 2",
      "Sem 3",
      "Sem 4",
      "Sem 5",
      "Sem 6",
      "Sem 7",
      "Sem 8",
      "Sem 9",
      "Sem 10",
      "Elective"
    ],
    "name": "Finance",
    "pos": 22,
    "shortName": "finance"
  },
  {
    "sems": [
      "Sem 1",
      "Sem 2",
      "Sem 3",
      "Sem 4",
      "Sem 5",
      "Sem 6",
      "Sem 7",
      "Sem 8",
      "Sem 9",
      "Sem 10",
      "Elective"
    ],
    "name": "Rubber",
    "pos": 23,
    "shortName": "rubber"
  },
  {
    "sems": [
      "All Sems"
    ],
    "name": "Placement/Internship Preparation",
    "pos": 24,
    "shortName": "placement"
  },
  {
    "sems": [
      "All Sems"
    ],
    "name": "First Year Common",
    "pos": 26,
    "shortName": "firstyear"
  }
]