{"_id":{"$oid":"5ca5a95fe2a7c16be232b3a6"},"email":"shivamsharma.btp@gmail.com","name":"Shivam Sharma","password":"$2a$10$nZlKi/l4doa2SsZj0UcO9eZhik7y1q0WoeFgHmm8B6fd8P7oHfIWS","profilePicture":"https://lh4.googleusercontent.com/-1LeUgSd-P5M/AAAAAAAAAAI/AAAAAAAAAOo/fu8Vv4N3MYw/s96-c/photo.jpg","timeLag":66,"filesUploaded":[],"filesDownloaded":[],"filesViewed":[],"bookshelf":[],"tokens":[{"_id":{"$oid":"5ca5a95fe2a7c16be232b3a7"},"access":"auth","token":"eyJhbGciOiJIUzI1NiIsInR5cCI6IkpXVCJ9.eyJfaWQiOiI1Y2E1YTk1ZmUyYTdjMTZiZTIzMmIzYTYiLCJhY2Nlc3MiOiJhdXRoIiwiaWF0IjoxNTU0MzYwNjcxfQ.SQRQaqOturkVW5qtTSXkhjrnSx09yG63n5iJ9w8jwQE"},{"_id":{"$oid":"5ca6bbd11faf1c06a3375312"},"access":"auth","token":"eyJhbGciOiJIUzI1NiIsInR5cCI6IkpXVCJ9.eyJfaWQiOiI1Y2E1YTk1ZmUyYTdjMTZiZTIzMmIzYTYiLCJhY2Nlc3MiOiJhdXRoIiwiaWF0IjoxNTU0NDMwOTI5fQ.azyPPyTMGxh0ekL9iMhsPtQlzsyNHZNZGR37NXbysyc"},{"_id":{"$oid":"5ca734fad6fb4c2d745d42ea"},"access":"auth","token":"eyJhbGciOiJIUzI1NiIsInR5cCI6IkpXVCJ9.eyJfaWQiOiI1Y2E1YTk1ZmUyYTdjMTZiZTIzMmIzYTYiLCJhY2Nlc3MiOiJhdXRoIiwiaWF0IjoxNTU0NDYxOTQ2fQ.kao3e6KT1vfMSG-uRJllp0r0X_gPrBNBeemOO-o2rOc"},{"_id":{"$oid":"5cc3db1173e1880f267aa8b6"},"access":"auth","token":"eyJhbGciOiJIUzI1NiIsInR5cCI6IkpXVCJ9.eyJfaWQiOiI1Y2E1YTk1ZmUyYTdjMTZiZTIzMmIzYTYiLCJhY2Nlc3MiOiJhdXRoIiwiaWF0IjoxNTU2MzM5NDczfQ.E_3_5t7jKzgsDaXWXvvvTd3WvWZQz2CQPzmHGAtXRSY"},{"_id":{"$oid":"5ce8db9c73e1880f267aab63"},"access":"auth","token":"eyJhbGciOiJIUzI1NiIsInR5cCI6IkpXVCJ9.eyJfaWQiOiI1Y2E1YTk1ZmUyYTdjMTZiZTIzMmIzYTYiLCJhY2Nlc3MiOiJhdXRoIiwiaWF0IjoxNTU4NzY0NDQ0fQ.XHg2KZFvXYKk2bfCmxLr8gBI5ZUR9ObMHX2mx9S9TzQ"},{"_id":{"$oid":"5d1d8ffd6879ee7135b9b3a9"},"access":"auth","token":"eyJhbGciOiJIUzI1NiIsInR5cCI6IkpXVCJ9.eyJfaWQiOiI1Y2E1YTk1ZmUyYTdjMTZiZTIzMmIzYTYiLCJhY2Nlc3MiOiJhdXRoIiwiaWF0IjoxNTYyMjE4NDkzfQ.0v7A_QEDR3Ljr7Wr_U9QdOU7LysPNfd_e9oMenm_Uxk"},{"_id":{"$oid":"5d1d90036879ee7135b9b3ab"},"access":"auth","token":"eyJhbGciOiJIUzI1NiIsInR5cCI6IkpXVCJ9.eyJfaWQiOiI1Y2E1YTk1ZmUyYTdjMTZiZTIzMmIzYTYiLCJhY2Nlc3MiOiJhdXRoIiwiaWF0IjoxNTYyMjE4NDk5fQ.jSEpwG8_tnFIIR9OlYhCm-9ENRe0ooG9SQdtIv0KCSo"},{"_id":{"$oid":"5d1df5fd6879ee7135b9b3af"},"access":"auth","token":"eyJhbGciOiJIUzI1NiIsInR5cCI6IkpXVCJ9.eyJfaWQiOiI1Y2E1YTk1ZmUyYTdjMTZiZTIzMmIzYTYiLCJhY2Nlc3MiOiJhdXRoIiwiaWF0IjoxNTYyMjQ0NjA1fQ.B_yOX_U0W0mOEmW3UNQwS_nCafJRX2xe6884OC_dt7A"},{"_id":{"$oid":"5d259a7f6879ee7135b9b3b4"},"access":"auth","token":"eyJhbGciOiJIUzI1NiIsInR5cCI6IkpXVCJ9.eyJfaWQiOiI1Y2E1YTk1ZmUyYTdjMTZiZTIzMmIzYTYiLCJhY2Nlc3MiOiJhdXRoIiwiaWF0IjoxNTYyNzQ1NDcxfQ.rHKFFuT-39ZTyyq1OlxRiZDTk_dkuNYwV7ZjrZLO07E"}],"__v":18,"googlePhoto":"https://lh4.googleusercontent.com/-1LeUgSd-P5M/AAAAAAAAAAI/AAAAAAAAAOo/fu8Vv4N3MYw/s96-c/photo.jpg","college":"Not Available","department":"Not Available","description":"Building up magguland"}
{"_id":{"$oid":"5ca6170587ed8203f5887fbc"},"email":"abhijeetvimal256@gmail.com","name":"Abhijeet Vimal","password":"$2a$10$2ACJygv4wPG.P8/B/e8yR.DpB0i69B4PlXpdO1dGoFxIJTAFnQFqa","profilePicture":"https://lh6.googleusercontent.com/-vYvAa0wj8gI/AAAAAAAAAAI/AAAAAAAAAIo/GyYxxKgtKkk/s96-c/photo.jpg","timeLag":4300,"filesUploaded":[],"filesDownloaded":[],"filesViewed":[],"bookshelf":[],"tokens":[{"_id":{"$oid":"5ca6e222d6fb4c2d745d42d8"},"access":"auth","token":"eyJhbGciOiJIUzI1NiIsInR5cCI6IkpXVCJ9.eyJfaWQiOiI1Y2E2MTcwNTg3ZWQ4MjAzZjU4ODdmYmMiLCJhY2Nlc3MiOiJhdXRoIiwiaWF0IjoxNTU0NDQwNzM4fQ.oiSdmrV5yMcWbb3XJ2OIpT5y1LecBEtSNDLLMqXzYkA"}],"__v":5,"googlePhoto":"https://lh6.googleusercontent.com/-vYvAa0wj8gI/AAAAAAAAAAI/AAAAAAAAAIo/GyYxxKgtKkk/s96-c/photo.jpg"}
{"_id":{"$oid":"5ca6434b1faf1c06a3375309"},"email":"aditisharmabtp@gmail.com","name":"Aditi Sharma","password":"$2a$10$.hUxZ.PTuwt7TZI4h68CgOHpAwwH1DQeF/MbXY7WYd6cCd.5OUGla","profilePicture":"https://www.gravatar.com/avatar/a980b11198ad31da7ac8c6b4f721aeac?s=100\u0026d=robohash","timeLag":1042,"filesUploaded":[],"filesDownloaded":[],"filesViewed":[],"bookshelf":[],"tokens":[{"_id":{"$oid":"5d1d8faf6879ee7135b9b3a7"},"access":"auth","token":"eyJhbGciOiJIUzI1NiIsInR5cCI6IkpXVCJ9.eyJfaWQiOiI1Y2E2NDM0YjFmYWYxYzA2YTMzNzUzMDkiLCJhY2Nlc3MiOiJhdXRoIiwiaWF0IjoxNTYyMjE4NDE1fQ.rmejxccNWSS4FzkOfIYyS6VWxJ9YRQUSjqcF4Fg-REE"}],"__v":5,"googlePhoto":"https://lh3.googleusercontent.com/-F9W7jfYIbsY/AAAAAAAAAAI/AAAAAAAAADk/Tk0mvdteGK4/s96-c/photo.jpg"}
{"_id":{"$oid":"5ca6f7ddd6fb4c2d745d42da"},"email":"shreedharsahoo226@gmail.com","name":"SHREEDHAR SAHOO","password":"$2a$10$LazEp35dfuGGF84dPpw7Ou/kSe86VhtdLqHB.USCm1J57j4tjKc76","profilePicture":"https://lh6.googleusercontent.com/-KNFcALWZF08/AAAAAAAAAAI/AAAAAAAAAcI/dZDIookWb8Y/s96-c/photo.jpg","timeLag":762,"filesUploaded":[],"filesDownloaded":[],"filesViewed":[],"bookshelf":[],"tokens":[{"_id":{"$oid":"5cb3f58713d0b76b4f60c2d4"},"access":"auth","token":"eyJhbGciOiJIUzI1NiIsInR5cCI6IkpXVCJ9.eyJfaWQiOiI1Y2E2ZjdkZGQ2ZmI0YzJkNzQ1ZDQyZGEiLCJhY2Nlc3MiOiJhdXRoIiwiaWF0IjoxNTU1Mjk3NjcxfQ.KIWbpxD6oFmKVeOZpyFTfWWaGMyCf_jso3mKxju-r1s"},{"_id":{"$oid":"5cb3f5a113d0b76b4f60c2d6"},"access":"auth","token":"eyJhbGciOiJIUzI1NiIsInR5cCI6IkpXVCJ9.eyJfaWQiOiI1Y2E2ZjdkZGQ2ZmI0YzJkNzQ1ZDQyZGEiLCJhY2Nlc3MiOiJhdXRoIiwiaWF0IjoxNTU1Mjk3Njk3fQ.QxZRJAGSU-RcFxmLDK600FpDqIiha3mmw7pq_2EG1Yg"},{"_id":{"$oid":"5cb3f5a413d0b76b4f60c2d8"},"access":"auth","token":"eyJhbGciOiJIUzI1NiIsInR5cCI6IkpXVCJ9.eyJfaWQiOiI1Y2E2ZjdkZGQ2ZmI0YzJkNzQ1ZDQyZGEiLCJhY2Nlc3MiOiJhdXRoIiwiaWF0IjoxNTU1Mjk3NzAwfQ.w1xnmVn9MD661eFJsNSuhaJT2zfhROzTZbA3wBlCAmw"}],"__v":4,"googlePhoto":"https://lh6.googleusercontent.com/-KNFcALWZF08/AAAAAAAAAAI/AAAAAAAAAcI/dZDIookWb8Y/s96-c/photo.jpg"}
{"_id":{"$oid":"5ca6febdd6fb4c2d745d42dc"},"email":"anjaneysharma25@gmail.com","name":"Anjaney Sharma","password":"$2a$10$GQRm.u734Wv7g5GFnJ9Mvet1L/Ss8NznUgrsk5ucPUJ/ezKZIlrci","profilePicture":"https://lh6.googleusercontent.com/-2cPISl5eZ4Q/AAAAAAAAAAI/AAAAAAAAApY/NJnsQztUJM8/s96-c/photo.jpg","timeLag":54001,"filesUploaded":[],"filesDownloaded":[],"filesViewed":[],"bookshelf":[],"tokens":[{"_id":{"$oid":"5cc29a0313d0b76b4f60c30f"},"access":"auth","token":"eyJhbGciOiJIUzI1NiIsInR5cCI6IkpXVCJ9.eyJfaWQiOiI1Y2E2ZmViZGQ2ZmI0YzJkNzQ1ZDQyZGMiLCJhY2Nlc3MiOiJhdXRoIiwiaWF0IjoxNTU2MjU3MjgzfQ.EzMulgVmdh_3pqYa5Zi3PWhvf7wMqMOEwrGznYcr5rE"}],"__v":2,"googlePhoto":"https://lh6.googleusercontent.com/-2cPISl5eZ4Q/AAAAAAAAAAI/AAAAAAAAApY/NJnsQztUJM8/s96-c/photo.jpg"}
{"_id":{"$oid":"5ca88ea305812c436f61e671"},"email":"shashaank2030@gmail.com","name":"shashaank varma","password":"$2a$10$y.yx92gjV.erxhdvs2eJ6OthzmJHvS4CnawVT2wAo8vT0E8OP9b3e","profilePicture":"https://lh4.googleusercontent.com/-SL1ysvA8wYw/AAAAAAAAAAI/AAAAAAAAAAA/ACHi3re2DX6Bg8cabbXDOh3M-4ljFBGvsQ/s96-c/photo.jpg","timeLag":2072,"filesUploaded":[],"filesDownloaded":[],"filesViewed":[],"bookshelf":[],"tokens":[{"_id":{"$oid":"5ca88ea405812c436f61e672"},"access":"auth","token":"eyJhbGciOiJIUzI1NiIsInR5cCI6IkpXVCJ9.eyJfaWQiOiI1Y2E4OGVhMzA1ODEyYzQzNmY2MWU2NzEiLCJhY2Nlc3MiOiJhdXRoIiwiaWF0IjoxNTU0NTUwNDM2fQ.2cSDyHuQAlHbNFicjSL0wbjNpA53or2vYfQhBuo0uXU"}],"__v":1,"googlePhoto":"https://lh4.googleusercontent.com/-SL1ysvA8wYw/AAAAAAAAAAI/AAAAAAAAAAA/ACHi3re2DX6Bg8cabbXDOh3M-4ljFBGvsQ/s96-c/photo.jpg"}
{"_id":{"$oid":"5cac8e650052284f440cf444"},"email":"pradhanomkar06@gmail.com","name":"Omkar Pradhan","password":"$2a$10$JZnjk2V5wGcrp7XTzHt9TeQySIOdhgkc1Ufuqghs5TJOhbYhNmyFK","profilePicture":"https://lh3.googleusercontent.com/-fpaZ79nX-mE/AAAAAAAAAAI/AAAAAAAAAwc/eMVpRnBD-vQ/s96-c/photo.jpg","timeLag":949,"filesUploaded":[],"filesDownloaded":[],"filesViewed":[],"bookshelf":[],"tokens":[{"_id":{"$oid":"5cac8e650052284f440cf445"},"access":"auth","token":"eyJhbGciOiJIUzI1NiIsInR5cCI6IkpXVCJ9.eyJfaWQiOiI1Y2FjOGU2NTAwNTIyODRmNDQwY2Y0NDQiLCJhY2Nlc3MiOiJhdXRoIiwiaWF0IjoxNTU0ODEyNTE3fQ.8Dt8rASDRx6ZirhVaaOG-XWPoHxmIJpO9KEOdgjpVNM"}],"__v":1,"googlePhoto":"https://lh3.googleusercontent.com/-fpaZ79nX-mE/AAAAAAAAAAI/AAAAAAAAAwc/eMVpRnBD-vQ/s96-c/photo.jpg"}
{"_id":{"$oid":"5cace19f0052284f440cf446"},"email":"raushanyadav20@gmail.com","name":"Raushan Yadav","password":"$2a$10$92juDgRM0nuiMJwD/VIFeO5KJFCHaKZe1H58EaJaX4Ta5HMNbx4o2","profilePicture":"https://lh6.googleusercontent.com/-F8xruxkHrvY/AAAAAAAAAAI/AAAAAAAAAAA/ACHi3re8ITUcjXAtf0-epISm8qmLrhtNJg/s96-c/photo.jpg","timeLag":1298,"filesUploaded":[],"filesDownloaded":[],"filesViewed":[],"bookshelf":[],"tokens":[{"_id":{"$oid":"5cace19f0052284f440cf447"},"access":"auth","token":"eyJhbGciOiJIUzI1NiIsInR5cCI6IkpXVCJ9.eyJfaWQiOiI1Y2FjZTE5ZjAwNTIyODRmNDQwY2Y0NDYiLCJhY2Nlc3MiOiJhdXRoIiwiaWF0IjoxNTU0ODMzODIzfQ.8VNOBd-zMN5UloCScMydqIWFhGvjQAP5WRorl0IfZuE"}],"__v":1,"googlePhoto":"https://lh6.googleusercontent.com/-F8xruxkHrvY/AAAAAAAAAAI/AAAAAAAAAAA/ACHi3re8ITUcjXAtf0-epISm8qmLrhtNJg/s96-c/photo.jpg"}
{"_id":{"$oid":"5caf3b2c3f94410333210fad"},"email":"pratikiitkgp585@gmail.com","name":"Pratik Yesankar","password":"$2a$10$QJ1asPzPycZ5GjZGcCVyCuvTaTO9KSvCQSRbPIpB0JMLNsabV/DDm","profilePicture":"https://lh4.googleusercontent.com/-0g8_DXHahJg/AAAAAAAAAAI/AAAAAAAALaY/tuTRnqd8gpw/s96-c/photo.jpg","timeLag":61024,"filesUploaded":[],"filesDownloaded":[],"filesViewed":[],"bookshelf":[],"tokens":[{"_id":{"$oid":"5caf3b2c3f94410333210fae"},"access":"auth","token":"eyJhbGciOiJIUzI1NiIsInR5cCI6IkpXVCJ9.eyJfaWQiOiI1Y2FmM2IyYzNmOTQ0MTAzMzMyMTBmYWQiLCJhY2Nlc3MiOiJhdXRoIiwiaWF0IjoxNTU0OTg3ODIwfQ.ryTEqktXvRI5wq2GL33Du2k_glRkEGmm5k7Rvw0oNWk"}],"__v":1,"googlePhoto":"https://lh4.googleusercontent.com/-0g8_DXHahJg/AAAAAAAAAAI/AAAAAAAALaY/tuTRnqd8gpw/s96-c/photo.jpg"}
{"_id":{"$oid":"5cb2f73813d0b76b4f60c2d1"},"email":"luckprince01@gmail.com","name":"Prince Kamboj","password":"$2a$10$tzEmtOhaaAWEMZ.hLjgx3eszI5r.CqSqdvWHkxE6XOyhWqKLYPaoK","profilePicture":"https://lh6.googleusercontent.com/-_2lRH3Rww5k/AAAAAAAAAAI/AAAAAAAAANE/n6shuYNiEbU/s96-c/photo.jpg","timeLag":1088,"filesUploaded":[],"filesDownloaded":[],"filesViewed":[],"bookshelf":[],"tokens":[{"_id":{"$oid":"5cb2f73813d0b76b4f60c2d2"},"access":"auth","token":"eyJhbGciOiJIUzI1NiIsInR5cCI6IkpXVCJ9.eyJfaWQiOiI1Y2IyZjczODEzZDBiNzZiNGY2MGMyZDEiLCJhY2Nlc3MiOiJhdXRoIiwiaWF0IjoxNTU1MjMyNTY4fQ.z8TmrAQvqK4KKDc7mRfVuM5BPUQbEFfbVpOGtTqjLzg"}],"__v":1,"googlePhoto":"https://lh6.googleusercontent.com/-_2lRH3Rww5k/AAAAAAAAAAI/AAAAAAAAANE/n6shuYNiEbU/s96-c/photo.jpg"}
{"_id":{"$oid":"5cb45ccf13d0b76b4f60c2e6"},"email":"aman95beniwal@gmail.com","name":"Aman Beniwal","password":"$2a$10$XowHpibiFSbftFl6HC84uOh3fBg8b69s5TRA2e0cho3bVs5iRdmfW","profilePicture":"https://lh4.googleusercontent.com/-le7NpNEGSLw/AAAAAAAAAAI/AAAAAAAAAKo/_vsRyKCwYU8/s96-c/photo.jpg","timeLag":-17,"filesUploaded":[],"filesDownloaded":[],"filesViewed":[],"bookshelf":[],"tokens":[{"_id":{"$oid":"5cb45ccf13d0b76b4f60c2e7"},"access":"auth","token":"eyJhbGciOiJIUzI1NiIsInR5cCI6IkpXVCJ9.eyJfaWQiOiI1Y2I0NWNjZjEzZDBiNzZiNGY2MGMyZTYiLCJhY2Nlc3MiOiJhdXRoIiwiaWF0IjoxNTU1MzI0MTExfQ.6ejPI372vH1t7ERQakiTMmZ1jjFmOXSzG3A-kxtKl-A"},{"_id":{"$oid":"5cb45cd813d0b76b4f60c2e9"},"access":"auth","token":"eyJhbGciOiJIUzI1NiIsInR5cCI6IkpXVCJ9.eyJfaWQiOiI1Y2I0NWNjZjEzZDBiNzZiNGY2MGMyZTYiLCJhY2Nlc3MiOiJhdXRoIiwiaWF0IjoxNTU1MzI0MTIwfQ.6Q8IIPlLun7kW2KMwNuQjV5JTYJBAGNzzkZL5XCu6Bw"},{"_id":{"$oid":"5cb45cd913d0b76b4f60c2eb"},"access":"auth","token":"eyJhbGciOiJIUzI1NiIsInR5cCI6IkpXVCJ9.eyJfaWQiOiI1Y2I0NWNjZjEzZDBiNzZiNGY2MGMyZTYiLCJhY2Nlc3MiOiJhdXRoIiwiaWF0IjoxNTU1MzI0MTIxfQ.odJL_kZ_abGg_h3TAyJajMqVUghpZbKXhJ66u-p7YRU"}],"__v":3,"googlePhoto":"https://lh4.googleusercontent.com/-le7NpNEGSLw/AAAAAAAAAAI/AAAAAAAAAKo/_vsRyKCwYU8/s96-c/photo.jpg"}
{"_id":{"$oid":"5cb876d013d0b76b4f60c2ec"},"email":"1suwalkaakshat1@gmail.com","name":"Akshat Suwalka","password":"$2a$10$YyZI6V5Sups8YfcWtcS.L.gsRKY1bGxE5.9BoXzmfLyCh65YUnvQe","profilePicture":"https://lh5.googleusercontent.com/-lCTTdxW2SIY/AAAAAAAAAAI/AAAAAAAAFJo/xLY-AiieETw/s96-c/photo.jpg","timeLag":1299,"filesUploaded":[],"filesDownloaded":[],"filesViewed":[],"bookshelf":[],"tokens":[{"_id":{"$oid":"5cb876d013d0b76b4f60c2ed"},"access":"auth","token":"eyJhbGciOiJIUzI1NiIsInR5cCI6IkpXVCJ9.eyJfaWQiOiI1Y2I4NzZkMDEzZDBiNzZiNGY2MGMyZWMiLCJhY2Nlc3MiOiJhdXRoIiwiaWF0IjoxNTU1NTkyOTEyfQ.Fz9bVc0vjwA3jnehUVCffoKGXF8AgT2c4NHJX8ePbFs"}],"__v":1,"googlePhoto":"https://lh5.googleusercontent.com/-lCTTdxW2SIY/AAAAAAAAAAI/AAAAAAAAFJo/xLY-AiieETw/s96-c/photo.jpg"}
{"_id":{"$oid":"5cc291c013d0b76b4f60c305"},"email":"kgpfresher@gmail.com","name":"Firstyear Iitkgp","password":"$2a$10$KbFYeaHQuM7Qc0Qrev9Gr.SyeFmPfkn6rf2LXwL5qiuAS33c5AUlC","profilePicture":"https://lh6.googleusercontent.com/-IL2aZZ47U-s/AAAAAAAAAAI/AAAAAAAAABE/Di0nWu-vMN0/s96-c/photo.jpg","timeLag":361,"filesUploaded":[],"filesDownloaded":[],"filesViewed":[],"bookshelf":[],"tokens":[{"_id":{"$oid":"5cc291c013d0b76b4f60c306"},"access":"auth","token":"eyJhbGciOiJIUzI1NiIsInR5cCI6IkpXVCJ9.eyJfaWQiOiI1Y2MyOTFjMDEzZDBiNzZiNGY2MGMzMDUiLCJhY2Nlc3MiOiJhdXRoIiwiaWF0IjoxNTU2MjU1MTY4fQ.RPyn_j3Mp1tW2JoZW0XPN27HjktTPVD3tykqaIPlI-o"},{"_id":{"$oid":"5cc2aeae13d0b76b4f60c362"},"access":"auth","token":"eyJhbGciOiJIUzI1NiIsInR5cCI6IkpXVCJ9.eyJfaWQiOiI1Y2MyOTFjMDEzZDBiNzZiNGY2MGMzMDUiLCJhY2Nlc3MiOiJhdXRoIiwiaWF0IjoxNTU2MjYyNTc0fQ.5FUcTvjplwGgc3OtJjhE6oHGJ7Dx8b7NCeMqYChCiuk"},{"_id":{"$oid":"5cc2b04a13d0b76b4f60c364"},"access":"auth","token":"eyJhbGciOiJIUzI1NiIsInR5cCI6IkpXVCJ9.eyJfaWQiOiI1Y2MyOTFjMDEzZDBiNzZiNGY2MGMzMDUiLCJhY2Nlc3MiOiJhdXRoIiwiaWF0IjoxNTU2MjYyOTg2fQ.pdG5WZK9T52M-YqR2Kr19m_yIICcOlVK97mxgJ0DaQI"},{"_id":{"$oid":"5cc2b04c13d0b76b4f60c366"},"access":"auth","token":"eyJhbGciOiJIUzI1NiIsInR5cCI6IkpXVCJ9.eyJfaWQiOiI1Y2MyOTFjMDEzZDBiNzZiNGY2MGMzMDUiLCJhY2Nlc3MiOiJhdXRoIiwiaWF0IjoxNTU2MjYyOTg4fQ.7Lm1S8pxN_GF0bitWNf1ET2-N_q8NvhgRnMdbh5QXyo"},{"_id":{"$oid":"5cc2b04e13d0b76b4f60c368"},"access":"auth","token":"eyJhbGciOiJIUzI1NiIsInR5cCI6IkpXVCJ9.eyJfaWQiOiI1Y2MyOTFjMDEzZDBiNzZiNGY2MGMzMDUiLCJhY2Nlc3MiOiJhdXRoIiwiaWF0IjoxNTU2MjYyOTkwfQ.-mazjxqq3EK-wIU-TrtN_F_8hRE_RUdSnUGat4INCKY"},{"_id":{"$oid":"5cc2b04f13d0b76b4f60c36a"},"access":"auth","token":"eyJhbGciOiJIUzI1NiIsInR5cCI6IkpXVCJ9.eyJfaWQiOiI1Y2MyOTFjMDEzZDBiNzZiNGY2MGMzMDUiLCJhY2Nlc3MiOiJhdXRoIiwiaWF0IjoxNTU2MjYyOTkxfQ.KCwYOl0Fm_hJdwFTPynTcrF2FD2Gt4fk-5W24ScdQcE"},{"_id":{"$oid":"5cc2b1f513d0b76b4f60c36c"},"access":"auth","token":"eyJhbGciOiJIUzI1NiIsInR5cCI6IkpXVCJ9.eyJfaWQiOiI1Y2MyOTFjMDEzZDBiNzZiNGY2MGMzMDUiLCJhY2Nlc3MiOiJhdXRoIiwiaWF0IjoxNTU2MjYzNDEzfQ.gqwDASFmvioY-At4BD-Oiqg1Q5mrre6gwUhOZ2T0gTY"},{"_id":{"$oid":"5cc2b1f713d0b76b4f60c36e"},"access":"auth","token":"eyJhbGciOiJIUzI1NiIsInR5cCI6IkpXVCJ9.eyJfaWQiOiI1Y2MyOTFjMDEzZDBiNzZiNGY2MGMzMDUiLCJhY2Nlc3MiOiJhdXRoIiwiaWF0IjoxNTU2MjYzNDE1fQ.ERIaYUSJCYBgAPTqegkum5qGU9OJRT7kmglslQ3GK9E"},{"_id":{"$oid":"5cc2b1f913d0b76b4f60c370"},"access":"auth","token":"eyJhbGciOiJIUzI1NiIsInR5cCI6IkpXVCJ9.eyJfaWQiOiI1Y2MyOTFjMDEzZDBiNzZiNGY2MGMzMDUiLCJhY2Nlc3MiOiJhdXRoIiwiaWF0IjoxNTU2MjYzNDE3fQ.4-hdiNCBnbKi4g3_kMTQOqZUqmglhFWQ2VesCf2cd2M"},{"_id":{"$oid":"5cc2b26b13d0b76b4f60c372"},"access":"auth","token":"eyJhbGciOiJIUzI1NiIsInR5cCI6IkpXVCJ9.eyJfaWQiOiI1Y2MyOTFjMDEzZDBiNzZiNGY2MGMzMDUiLCJhY2Nlc3MiOiJhdXRoIiwiaWF0IjoxNTU2MjYzNTMxfQ.-XxD7XuKDzkvcBHRAPExxDz6P8RyffgqjTfb8wkb9ds"},{"_id":{"$oid":"5cc2b2fc13d0b76b4f60c374"},"access":"auth","token":"eyJhbGciOiJIUzI1NiIsInR5cCI6IkpXVCJ9.eyJfaWQiOiI1Y2MyOTFjMDEzZDBiNzZiNGY2MGMzMDUiLCJhY2Nlc3MiOiJhdXRoIiwiaWF0IjoxNTU2MjYzNjc2fQ.SyX71PaalJxVF5bsmadohaY91cZN7YV80OmAWiAV4Is"},{"_id":{"$oid":"5cc2b6b573e1880f267aa7f4"},"access":"auth","token":"eyJhbGciOiJIUzI1NiIsInR5cCI6IkpXVCJ9.eyJfaWQiOiI1Y2MyOTFjMDEzZDBiNzZiNGY2MGMzMDUiLCJhY2Nlc3MiOiJhdXRoIiwiaWF0IjoxNTU2MjY0NjI5fQ.FAaKxJwF8Kat_m0flyf262uIJhvdqOlJgA0Gmmx0T7s"},{"_id":{"$oid":"5cc2b6b773e1880f267aa7f6"},"access":"auth","token":"eyJhbGciOiJIUzI1NiIsInR5cCI6IkpXVCJ9.eyJfaWQiOiI1Y2MyOTFjMDEzZDBiNzZiNGY2MGMzMDUiLCJhY2Nlc3MiOiJhdXRoIiwiaWF0IjoxNTU2MjY0NjMxfQ.OxCe1WtVQ-JBzhQWC7uo8tjmF5oAP_HlQd430kc4kKA"},{"_id":{"$oid":"5cc2b6b973e1880f267aa7f8"},"access":"auth","token":"eyJhbGciOiJIUzI1NiIsInR5cCI6IkpXVCJ9.eyJfaWQiOiI1Y2MyOTFjMDEzZDBiNzZiNGY2MGMzMDUiLCJhY2Nlc3MiOiJhdXRoIiwiaWF0IjoxNTU2MjY0NjMzfQ.f-PGz6RquPr1IXplElQDYMqERh6SiS3mOaFk5TzGPeE"},{"_id":{"$oid":"5cc2b7df73e1880f267aa7fe"},"access":"auth","token":"eyJhbGciOiJIUzI1NiIsInR5cCI6IkpXVCJ9.eyJfaWQiOiI1Y2MyOTFjMDEzZDBiNzZiNGY2MGMzMDUiLCJhY2Nlc3MiOiJhdXRoIiwiaWF0IjoxNTU2MjY0OTI3fQ.bVNQQVlxcbtKfbIUN4A88Ll6VKxeIkyXVjnnV0IQFMQ"}],"__v":15,"googlePhoto":"https://lh6.googleusercontent.com/-IL2aZZ47U-s/AAAAAAAAAAI/AAAAAAAAABE/Di0nWu-vMN0/s96-c/photo.jpg"}
{"_id":{"$oid":"5cc294a913d0b76b4f60c307"},"email":"himesh.dec28@gmail.com","name":"Himesh Kothari","password":"$2a$10$8AsmUkeC4bKEoaiJc/h79.7NOf5OVytzYA/Nq35n/CuqYbtpSaR42","profilePicture":"https://lh4.googleusercontent.com/-VjrD3SkU3xw/AAAAAAAAAAI/AAAAAAAAP-o/03Kv5MqcTgI/s96-c/photo.jpg","timeLag":-70913,"filesUploaded":[],"filesDownloaded":[],"filesViewed":[],"bookshelf":[],"tokens":[{"_id":{"$oid":"5cc299bd13d0b76b4f60c30d"},"access":"auth","token":"eyJhbGciOiJIUzI1NiIsInR5cCI6IkpXVCJ9.eyJfaWQiOiI1Y2MyOTRhOTEzZDBiNzZiNGY2MGMzMDciLCJhY2Nlc3MiOiJhdXRoIiwiaWF0IjoxNTU2MjU3MjEzfQ.wOH_SgFNZPsyE4WDboZedMsL1Iiup-26fAfvmyuLvd0"}],"__v":2,"googlePhoto":"https://lh4.googleusercontent.com/-VjrD3SkU3xw/AAAAAAAAAAI/AAAAAAAAP-o/03Kv5MqcTgI/s96-c/photo.jpg"}
{"_id":{"$oid":"5cc2a15913d0b76b4f60c34e"},"email":"ramitpahwa123@gmail.com","name":"ramit pahwa","password":"$2a$10$kqwtNXvrmaIKIw2cQUGm9.mm/s5cZPvpOQEde8mcG.l9FSrHLu/wG","profilePicture":"https://lh6.googleusercontent.com/-3AgjIdnAOCI/AAAAAAAAAAI/AAAAAAAAOfo/G8OyWUWEpvI/s96-c/photo.jpg","timeLag":22393,"filesUploaded":[],"filesDownloaded":[],"filesViewed":[],"bookshelf":[],"tokens":[{"_id":{"$oid":"5cc2a15913d0b76b4f60c34f"},"access":"auth","token":"eyJhbGciOiJIUzI1NiIsInR5cCI6IkpXVCJ9.eyJfaWQiOiI1Y2MyYTE1OTEzZDBiNzZiNGY2MGMzNGUiLCJhY2Nlc3MiOiJhdXRoIiwiaWF0IjoxNTU2MjU5MTYxfQ.LPwcFvwPNe6KqhjsW0MFvVz_plGlYkA5X-qbftxUtes"}],"__v":1,"googlePhoto":"https://lh6.googleusercontent.com/-3AgjIdnAOCI/AAAAAAAAAAI/AAAAAAAAOfo/G8OyWUWEpvI/s96-c/photo.jpg"}
{"_id":{"$oid":"5cc3d1d473e1880f267aa8ad"},"email":"atulpbj@gmail.com","name":"Atul Kumar Singh","password":"$2a$10$MdY1VYZSbruUDh779OtUt.yXdC6Most1mvngaZRYkfdu5jkG2mPdy","profilePicture":"https://lh5.googleusercontent.com/-gblKpAyGcu4/AAAAAAAAAAI/AAAAAAAAQWs/qQAvPutOE1Y/s96-c/photo.jpg","timeLag":1371,"filesUploaded":[],"filesDownloaded":[],"filesViewed":[],"bookshelf":[],"tokens":[{"_id":{"$oid":"5cc3d1d473e1880f267aa8ae"},"access":"auth","token":"eyJhbGciOiJIUzI1NiIsInR5cCI6IkpXVCJ9.eyJfaWQiOiI1Y2MzZDFkNDczZTE4ODBmMjY3YWE4YWQiLCJhY2Nlc3MiOiJhdXRoIiwiaWF0IjoxNTU2MzM3MTA4fQ.ORATYA5supJK8HrCEXXbBAGFdVsrecnwA5ekxjVLAIg"}],"__v":1,"googlePhoto":"https://lh5.googleusercontent.com/-gblKpAyGcu4/AAAAAAAAAAI/AAAAAAAAQWs/qQAvPutOE1Y/s96-c/photo.jpg"}
{"_id":{"$oid":"5cd826f973e1880f267aaafb"},"email":"rajeswarim81@gmail.com","name":"Rajeswari Mahapatra","password":"$2a$10$2mlHiOetTV2ASpXGDtMr2uxV2F41u2JQ4etn0v6kWnwR7sFjbeR0.","profilePicture":"https://lh4.googleusercontent.com/-1iLBOR14Qnw/AAAAAAAAAAI/AAAAAAAAG58/CVLp_Z821mk/s96-c/photo.jpg","timeLag":325,"filesUploaded":[],"filesDownloaded":[],"filesViewed":[],"bookshelf":[],"tokens":[],"__v":1,"googlePhoto":"https://lh4.googleusercontent.com/-1iLBOR14Qnw/AAAAAAAAAAI/AAAAAAAAG58/CVLp_Z821mk/s96-c/photo.jpg"}
{"_id":{"$oid":"5cd82ba573e1880f267aaafe"},"email":"aiswaryapalavajjhala@gmail.com","name":"Palavajjhala Aiswarya","password":"$2a$10$rwbTVebY0QJ8OsHmyoN60uo9ZwikmjH5Ti14LCZwTwhyCw5kIWmoC","profilePicture":"https://lh4.googleusercontent.com/-qAWGHqzublY/AAAAAAAAAAI/AAAAAAAAAAA/ACHi3rd5mUU0HHKHBEaDNfluEnFszpfMRQ/s96-c/photo.jpg","timeLag":26785,"filesUploaded":[],"filesDownloaded":[],"filesViewed":[],"bookshelf":[],"tokens":[{"_id":{"$oid":"5cd82ba673e1880f267aaaff"},"access":"auth","token":"eyJhbGciOiJIUzI1NiIsInR5cCI6IkpXVCJ9.eyJfaWQiOiI1Y2Q4MmJhNTczZTE4ODBmMjY3YWFhZmUiLCJhY2Nlc3MiOiJhdXRoIiwiaWF0IjoxNTU3NjcwODIyfQ.TN4RKi96eNPA1tWX2WE1K1o5vNfD-m9MklkHQ_rvcIk"}],"__v":1,"googlePhoto":"https://lh4.googleusercontent.com/-qAWGHqzublY/AAAAAAAAAAI/AAAAAAAAAAA/ACHi3rd5mUU0HHKHBEaDNfluEnFszpfMRQ/s96-c/photo.jpg"}
{"_id":{"$oid":"5cd8413a73e1880f267aab01"},"email":"kishorekissu5@gmail.com","name":"Kishore Chirikuri","password":"$2a$10$ejQZv4kUGIz8iVNjNhyws.dMnkf5dV8J7Ru28OzeWfhEKCdOOC/6O","profilePicture":"https://lh3.googleusercontent.com/-9ZZvSyQ9QrE/AAAAAAAAAAI/AAAAAAAAH9M/cCNggk4zK6Y/s96-c/photo.jpg","timeLag":1808,"filesUploaded":[],"filesDownloaded":[],"filesViewed":[],"bookshelf":[],"tokens":[{"_id":{"$oid":"5cd8413a73e1880f267aab02"},"access":"auth","token":"eyJhbGciOiJIUzI1NiIsInR5cCI6IkpXVCJ9.eyJfaWQiOiI1Y2Q4NDEzYTczZTE4ODBmMjY3YWFiMDEiLCJhY2Nlc3MiOiJhdXRoIiwiaWF0IjoxNTU3Njc2MzQ2fQ.i7wwcusAORdyfhx13XNxUcijpNSRfFDhNWfuC-p08-E"},{"_id":{"$oid":"5cd8413f73e1880f267aab04"},"access":"auth","token":"eyJhbGciOiJIUzI1NiIsInR5cCI6IkpXVCJ9.eyJfaWQiOiI1Y2Q4NDEzYTczZTE4ODBmMjY3YWFiMDEiLCJhY2Nlc3MiOiJhdXRoIiwiaWF0IjoxNTU3Njc2MzUxfQ.StPOwOsU7mEDP7N9tWetby8E3Dtwj5mEH_mCop-5hJ4"},{"_id":{"$oid":"5cd8414073e1880f267aab06"},"access":"auth","token":"eyJhbGciOiJIUzI1NiIsInR5cCI6IkpXVCJ9.eyJfaWQiOiI1Y2Q4NDEzYTczZTE4ODBmMjY3YWFiMDEiLCJhY2Nlc3MiOiJhdXRoIiwiaWF0IjoxNTU3Njc2MzUyfQ.J1nBGpD_EFi-C4eFgdBRruT0-F-kgkXbctQysv3Ob8c"},{"_id":{"$oid":"5cd8414173e1880f267aab08"},"access":"auth","token":"eyJhbGciOiJIUzI1NiIsInR5cCI6IkpXVCJ9.eyJfaWQiOiI1Y2Q4NDEzYTczZTE4ODBmMjY3YWFiMDEiLCJhY2Nlc3MiOiJhdXRoIiwiaWF0IjoxNTU3Njc2MzUzfQ.I01cC-Xs9Ix0iqTJl3e9YeYtXoJXt2epT5xjysFyALM"},{"_id":{"$oid":"5cd8414273e1880f267aab0a"},"access":"auth","token":"eyJhbGciOiJIUzI1NiIsInR5cCI6IkpXVCJ9.eyJfaWQiOiI1Y2Q4NDEzYTczZTE4ODBmMjY3YWFiMDEiLCJhY2Nlc3MiOiJhdXRoIiwiaWF0IjoxNTU3Njc2MzU0fQ.s99cwKE6hIh-Rj6hssvpiEwcMrpHvYmhS7_OESSxZ8g"}],"__v":5,"googlePhoto":"https://lh3.googleusercontent.com/-9ZZvSyQ9QrE/AAAAAAAAAAI/AAAAAAAAH9M/cCNggk4zK6Y/s96-c/photo.jpg"}
{"_id":{"$oid":"5cd8464c73e1880f267aab0d"},"email":"vsrsirish13@gmail.com","name":"SIRISH REDDY","password":"$2a$10$fqbu467EgwyEzeYzuXEroO1IpqbbUuzBOFALxr7yE/j7ALcgfqfTO","profilePicture":"https://lh4.googleusercontent.com/-u65_9YSuhoA/AAAAAAAAAAI/AAAAAAAAAAA/ACHi3reQ_DBNtJV8Gb3NAAKA6zAwfrV2nw/s96-c/photo.jpg","timeLag":3416,"filesUploaded":[],"filesDownloaded":[],"filesViewed":[],"bookshelf":[],"tokens":[{"_id":{"$oid":"5cd8464d73e1880f267aab0e"},"access":"auth","token":"eyJhbGciOiJIUzI1NiIsInR5cCI6IkpXVCJ9.eyJfaWQiOiI1Y2Q4NDY0YzczZTE4ODBmMjY3YWFiMGQiLCJhY2Nlc3MiOiJhdXRoIiwiaWF0IjoxNTU3Njc3NjQ1fQ.Y_PrlIcYadcUoaaZUn5sNAV3SMu4z8oTjdgxyztFXYU"}],"__v":1,"googlePhoto":"https://lh4.googleusercontent.com/-u65_9YSuhoA/AAAAAAAAAAI/AAAAAAAAAAA/ACHi3reQ_DBNtJV8Gb3NAAKA6zAwfrV2nw/s96-c/photo.jpg"}
{"_id":{"$oid":"5cd8707973e1880f267aab26"},"email":"amarkrishnamurmu001@gmail.com","name":"Amar Krishna","password":"$2a$10$ZIkhboZI3WAzXX763t/YoulgqXoGsJISAF0lNyNgATZ7lBBECe7AO","profilePicture":"https://lh5.googleusercontent.com/-nr0NSV2T4hU/AAAAAAAAAAI/AAAAAAAAAN0/MSBeCn7Jdc8/s96-c/photo.jpg","timeLag":138874,"filesUploaded":[],"filesDownloaded":[],"filesViewed":[],"bookshelf":[],"tokens":[],"__v":1,"googlePhoto":"https://lh5.googleusercontent.com/-nr0NSV2T4hU/AAAAAAAAAAI/AAAAAAAAAN0/MSBeCn7Jdc8/s96-c/photo.jpg"}
{"_id":{"$oid":"5cdcdab973e1880f267aab34"},"email":"ysriteshtewari@gmail.com","name":"Ritesh Tewari","password":"$2a$10$x1H5wDcy3PsRTZEowrncv.ZEpBZ05CERsttcG0/Wp3HvOID3pskxq","profilePicture":"https://lh4.googleusercontent.com/-rEuF_fDmvRc/AAAAAAAAAAI/AAAAAAAAAAA/ACHi3rdhg7pw4cvi-x8sjPdSkw1Po9Ktsw/s96-c/photo.jpg","timeLag":122426,"filesUploaded":[],"filesDownloaded":[],"filesViewed":[],"bookshelf":[],"tokens":[{"_id":{"$oid":"5cdcdab973e1880f267aab35"},"access":"auth","token":"eyJhbGciOiJIUzI1NiIsInR5cCI6IkpXVCJ9.eyJfaWQiOiI1Y2RjZGFiOTczZTE4ODBmMjY3YWFiMzQiLCJhY2Nlc3MiOiJhdXRoIiwiaWF0IjoxNTU3OTc3Nzg1fQ.lUWYKTFsf1tm8EaqFI5pwpOU8H7YJa46CvLMstMEZ-M"}],"__v":1,"googlePhoto":"https://lh4.googleusercontent.com/-rEuF_fDmvRc/AAAAAAAAAAI/AAAAAAAAAAA/ACHi3rdhg7pw4cvi-x8sjPdSkw1Po9Ktsw/s96-c/photo.jpg"}
{"_id":{"$oid":"5cdf92f773e1880f267aab3a"},"email":"mayur12025gh@gmail.com","name":"Mayur Bangar","password":"$2a$10$EoSR8rarXUKixCHEGMjul.GPXIy7k/Xo9Paa/VWE1cQgYGOqluqaS","profilePicture":"https://lh5.googleusercontent.com/-qbcg-J-xDI4/AAAAAAAAAAI/AAAAAAAAABA/2Z-hISQadLk/s96-c/photo.jpg","timeLag":574,"filesUploaded":[],"filesDownloaded":[],"filesViewed":[],"bookshelf":[],"tokens":[{"_id":{"$oid":"5cdf92f773e1880f267aab3b"},"access":"auth","token":"eyJhbGciOiJIUzI1NiIsInR5cCI6IkpXVCJ9.eyJfaWQiOiI1Y2RmOTJmNzczZTE4ODBmMjY3YWFiM2EiLCJhY2Nlc3MiOiJhdXRoIiwiaWF0IjoxNTU4MTU2MDIzfQ.Tstw_8uSWYWzrzfzZbWp7z1jusQdL3d3qxcz7YgPnBE"}],"__v":1,"googlePhoto":"https://lh5.googleusercontent.com/-qbcg-J-xDI4/AAAAAAAAAAI/AAAAAAAAABA/2Z-hISQadLk/s96-c/photo.jpg"}
{"_id":{"$oid":"5cdfa89073e1880f267aab4c"},"email":"mailforveda@gmail.com","name":"Vedasheersh Boorla","password":"$2a$10$cmo7buXFdckexBd4figsiOn2ZrpTBc4.y8niaZK3UBYxSAFSWOXNa","profilePicture":"https://lh4.googleusercontent.com/-R3nIWEOkuMY/AAAAAAAAAAI/AAAAAAAAGYs/ZSSDA09zbfk/s96-c/photo.jpg","timeLag":351,"filesUploaded":[],"filesDownloaded":[],"filesViewed":[],"bookshelf":[],"tokens":[{"_id":{"$oid":"5cdfa89073e1880f267aab4d"},"access":"auth","token":"eyJhbGciOiJIUzI1NiIsInR5cCI6IkpXVCJ9.eyJfaWQiOiI1Y2RmYTg5MDczZTE4ODBmMjY3YWFiNGMiLCJhY2Nlc3MiOiJhdXRoIiwiaWF0IjoxNTU4MTYxNTUyfQ.4j372kkZQf3eQNh5FE7dRkvPIqUII0oBbg2UWaNlCZw"}],"__v":1,"googlePhoto":"https://lh4.googleusercontent.com/-R3nIWEOkuMY/AAAAAAAAAAI/AAAAAAAAGYs/ZSSDA09zbfk/s96-c/photo.jpg"}
{"_id":{"$oid":"5cdfac2273e1880f267aab4e"},"email":"rohitjain3241@gmail.com","name":"Rohit Jain","password":"$2a$10$Rb0y1JByzE4uVYewpkqlEuGjbC9vpZPrM/yJ7UDttCwa2Os6FpH6O","profilePicture":"https://lh4.googleusercontent.com/-zqCd6501Cj8/AAAAAAAAAAI/AAAAAAAAAAA/ACHi3rdAxuTs_S1di6vm-YrW2mIJ1nkrhg/s96-c/photo.jpg","timeLag":2913,"filesUploaded":[],"filesDownloaded":[],"filesViewed":[],"bookshelf":[],"tokens":[{"_id":{"$oid":"5cdfac2273e1880f267aab4f"},"access":"auth","token":"eyJhbGciOiJIUzI1NiIsInR5cCI6IkpXVCJ9.eyJfaWQiOiI1Y2RmYWMyMjczZTE4ODBmMjY3YWFiNGUiLCJhY2Nlc3MiOiJhdXRoIiwiaWF0IjoxNTU4MTYyNDY2fQ.7yzrdhIZ0xbnY-dDi2cep0981OoaKS0T6qSNd17cDrA"}],"__v":1,"googlePhoto":"https://lh4.googleusercontent.com/-zqCd6501Cj8/AAAAAAAAAAI/AAAAAAAAAAA/ACHi3rdAxuTs_S1di6vm-YrW2mIJ1nkrhg/s96-c/photo.jpg"}
{"_id":{"$oid":"5cdfc95b73e1880f267aab58"},"email":"athityakumar@gmail.com","name":"Athitya Kumar","password":"$2a$10$VTRZDUo5pfXAGbRwrfMnAuhSXilCaFz.Wlri.gdrE8Y8YqXmQzPGy","profilePicture":"https://lh6.googleusercontent.com/-LN4oYGRQ6yQ/AAAAAAAAAAI/AAAAAAAAI1Q/y8Jvyjs2Kc0/s96-c/photo.jpg","timeLag":-164,"filesUploaded":[],"filesDownloaded":[],"filesViewed":[],"bookshelf":[],"tokens":[{"_id":{"$oid":"5cdfc95b73e1880f267aab59"},"access":"auth","token":"eyJhbGciOiJIUzI1NiIsInR5cCI6IkpXVCJ9.eyJfaWQiOiI1Y2RmYzk1YjczZTE4ODBmMjY3YWFiNTgiLCJhY2Nlc3MiOiJhdXRoIiwiaWF0IjoxNTU4MTY5OTQ3fQ.A2jsaAx2FWCpsmeD4ZY3cBNqajmRcsF6ndfsOgva0JM"}],"__v":1,"googlePhoto":"https://lh6.googleusercontent.com/-LN4oYGRQ6yQ/AAAAAAAAAAI/AAAAAAAAI1Q/y8Jvyjs2Kc0/s96-c/photo.jpg"}
{"_id":{"$oid":"5ce8d9da73e1880f267aab5f"},"email":"magguland@gmail.com","name":"Maggu Land","password":"$2a$10$zUNHOihfSqQHlmpJWIXohuLcQM2WFYgSl8fuh0EuiQhUAwsu0.GA.","profilePicture":"https://lh5.googleusercontent.com/-0PbJSTYhPfM/AAAAAAAAAAI/AAAAAAAAAAA/ACHi3rd_NWL05cDeMtm3HtvhTxCYS54XUw/s96-c/photo.jpg","timeLag":-80,"filesUploaded":[],"filesDownloaded":[],"filesViewed":[],"bookshelf":[],"tokens":[],"__v":1,"googlePhoto":"https://lh5.googleusercontent.com/-0PbJSTYhPfM/AAAAAAAAAAI/AAAAAAAAAAA/ACHi3rd_NWL05cDeMtm3HtvhTxCYS54XUw/s96-c/photo.jpg"}
{"_id":{"$oid":"5cee3da473e1880f267aab67"},"email":"piyushk95@gmail.com","name":"Piyush Kumar Singh","password":"$2a$10$ha7z2yzud4uujIL/rbYqzegRF50RBhBvvhRw2c3GkLKF2NvBHK9KS","profilePicture":"https://lh5.googleusercontent.com/-vsKZ06Esodo/AAAAAAAAAAI/AAAAAAAAHQM/xiai1V31cOc/s96-c/photo.jpg","timeLag":150189,"filesUploaded":[],"filesDownloaded":[],"filesViewed":[],"bookshelf":[],"tokens":[],"__v":1,"googlePhoto":"https://lh5.googleusercontent.com/-vsKZ06Esodo/AAAAAAAAAAI/AAAAAAAAHQM/xiai1V31cOc/s96-c/photo.jpg"}
{"_id":{"$oid":"5cfa0a26afa87077942a64c9"},"email":"shivam.sharma@nobroker.in","name":"Shivam Sharma","password":"$2a$10$B0cS9c7mBfzMwggTX0tKj.HOGB44fHn8y8PQRxAPwfeEHNic1ccJ.","profilePicture":"https://www.gravatar.com/avatar/c068fceb72ba235a1f38b8cefc14d63b?s=100\u0026d=robohash","timeLag":13,"filesUploaded":[],"filesDownloaded":[],"filesViewed":[],"bookshelf":[],"tokens":[{"_id":{"$oid":"5cfa0a26afa87077942a64ca"},"access":"auth","token":"eyJhbGciOiJIUzI1NiIsInR5cCI6IkpXVCJ9.eyJfaWQiOiI1Y2ZhMGEyNmFmYTg3MDc3OTQyYTY0YzkiLCJhY2Nlc3MiOiJhdXRoIiwiaWF0IjoxNTU5ODkwNDcwfQ.VdjaX1_DPJKMAcrd6nMng3-u7hq0RBlTmfS_aifnPhg"}],"__v":3,"googlePhoto":"https://lh4.googleusercontent.com/-IfksMB5rZWU/AAAAAAAAAAI/AAAAAAAAAAA/ACHi3rdBKkJFz17mPiAz3NZDsRlA2fEv_A/s96-c/photo.jpg"}
