["IIT Khargpur",
"IIT Bombay",
"IIT Madras",
"IIT Kanpur",
"IIT Delhi",
"IIT Guwahati",
"IIT Roorkee",
"IIT Ropar",
"IIT Bhubaneswar",
"IIT Gandhinagar",
"IIT Hyderabad",
"IIT Jodhpur",
"IIT Patna",
"IIT Indore",
"IIT Mandi",
"IIT BHU",
"IIT Palakkad",
"IIT Tirupati",
"IIT Dhanbad",
"IIT Bhilai",
"IIT Goa",
"IIT Jammu",
"IIT Dharwad",
"NIT Trichy",
"NIT Suratkal",
"NIT Warangal",
"NIT Calicut",
"MNNIT Allahabad",
"NIT Rourkela",
"MNIT Jaipur",
"NIT Bhopal",
"SVNIT Surat",
"VNIT Nagpur",
"NIT Kurukshetra",
"NIT Jalandhar",
"NIT Durgapur",
"NIT Raipur",
"NIT Hamirpur",
"NIT Jamshedpur",
"NIT Delhi",
"NIT Patna",
"NIT Goa",
"NIT Sikkim",
"NIT Tadepalligudem",
"NIT Silchar",
"NIT Agartala",
"NIT Srinagar",
"NIT Uttarakhand",
"NIT Manipur",
"NIT Pondicherry",
"NIT Meghalaya",
"NIT Nagaland",
"NIT Mizoram",
"NIT Yupia",
"BITS Pilani",
"BITS Goa",
"IIIT Hyderabad",
"IIIT Pune",
"IIIT Bangalore",
"IIIT Bhubaneshwar"
]