["Google",
    "Microsoft",
    "Amazon",
    "Nutanix",
    "Thoughtspot",
    "Goldman Sachs",
    "Cisco",
    "Flow traders",
    "Itron",
    "Nference Labs",
    "WorldQuant",
    "Samsung Bangalore",
    "AppDynamics",
    "Cohesity",
    "Samsung",
    "Arista Networks",
    "Directi",
    "Edgeverve",
    "Hexagon",
    "Clumio Technologies",
    "Deskera",
    "Wells Fargo",
    "BookMyShow",
    "Zendrive",
    "ShareChat",
    "Citrix",
    "Honeywell",
    "Walmart Labs",
    "Motorq",
    "Cogoport",
    "NetApp",
    "Sprinklr",
    "Axis Bank",
    "Juniper",
    "Publicis Sapient",
    "Zauba Technologies",
    "ExaWizards",
    "HSBC",
    "Samsung",
    "Semiconductor",
    "Standard Chartered",
    "Silverleaf Capital Services",
    "AQR Capital",
    "Samsung Noida",
    "Adobe",
    "Zomato",
    "Alphonso",
    "Jaguar Land Rover",
    "Publicis Sapient",
    "JPMC",
    "Visa",
    "Oracle",
    "Cure.fit",
    "Societe Generale",
    "Morgan Stanley",
    "Plutus Research Capital",
    "ServiceNow",
    "Codenation",
    "JioSaavn",
    "Mathworks",
    "PhonePe",
    "Squarepoint Capital",
    "Trell",
    "Bounce",
    "Intel",
    "Accenture Japan",
    "OLA",
    "Harness",
    "APT Portfolio",
    "Uber",
    "Trexquant",
    "RazorPay",
    "Enphase Energy",
    "Oppo",
    "Dunzo",
    "Sandvine",
    "Bidgely"]